01-Doan Anh-Tuan-Nam-QuangBinh-SinhVien-DEV-8/4/2000-20/8/2000-HopDong-02-ATTT-luong01-2-4
02-Doan Anh-Tuan-Nam-QuangBinh-SinhVien-DEV-8/4/2000-20/8/2000-HopDong-02-ATTT-luong01-2-4
03-Doan Anh-Tuan-Nam-QuangBinh-SinhVien-DEV-8/4/2000-20/8/2000-HopDong-02-ATTT-luong01-2-4
01-Doan Anh-Tuan-Nam-QuangBinh-SinhVien-DEV-8/4/2000-20/8/2000-HopDong-02-ATTT-luong01-2-4
02-Doan Anh-Tuan-Nam-QuangBinh-SinhVien-DEV-8/4/2000-20/8/2000-HopDong-02-ATTT-luong01-2-4
03-Doan Anh-Tuan-Nam-QuangBinh-SinhVien-DEV-8/4/2000-20/8/2000-HopDong-02-ATTT-luong01-2-4
01-Doan Anh-Tuan-Nam-QuangBinh-SinhVien-DEV-8/4/2000-20/8/2000-HopDong-02-ATTT-luong01-2-4
02-Doan Anh-Tuan-Nam-QuangBinh-SinhVien-DEV-8/4/2000-20/8/2000-HopDong-02-ATTT-luong01-2-4
03-Doan Anh-Tuan-Nam-QuangBinh-SinhVien-DEV-8/4/2000-20/8/2000-HopDong-02-ATTT-luong01-2-4
01-Doan Anh-Tuan-Nam-QuangBinh-SinhVien-DEV-8/4/2000-20/8/2000-HopDong-02-ATTT-luong01-2-4
02-Doan Anh-Tuan-Nam-QuangBinh-SinhVien-DEV-8/4/2000-20/8/2000-HopDong-02-ATTT-luong01-2-4
03-Doan Anh-Tuan-Nam-QuangBinh-SinhVien-DEV-8/4/2000-20/8/2000-HopDong-02-ATTT-luong01-2-4
