01-Doan Anh-Tuan-Nam-QuangBinh-SinhVien-DEV-8/4/2000-20/8/2000-HopDong-ATTT-ATTT-luong01-2-4
02-Doan Anh-Tuan-Nam-QuangBinh-SinhVien-DEV-8/4/2000-20/8/2000-HopDong-CNTT-CNTT-luong01-2-4
03-Doan Anh-Tuan-Nam-QuangBinh-SinhVien-DEV-8/4/2000-20/8/2000-HopDong-ATTT-ATTT-luong01-2-4
04-Doan Anh-Tuan-Nam-QuangBinh-SinhVien-DEV-8/4/2000-20/8/2000-HopDong-VT-VT-luong01-2-4