^C:\USERS\DELL\DOCUMENTS\VISUAL STUDIO 2015\PROJECTS\TESTLIST\TESTLISTL\STDAFX.CPP
C:\USERS\DELL\DOCUMENTS\VISUAL STUDIO 2015\PROJECTS\TESTLIST\TESTLISTL\DEBUG\TESTLISTL.PCH
C:\USERS\DELL\DOCUMENTS\VISUAL STUDIO 2015\PROJECTS\TESTLIST\TESTLISTL\DEBUG\VC140.PDB
C:\USERS\DELL\DOCUMENTS\VISUAL STUDIO 2015\PROJECTS\TESTLIST\TESTLISTL\DEBUG\VC140.IDB
C:\USERS\DELL\DOCUMENTS\VISUAL STUDIO 2015\PROJECTS\TESTLIST\TESTLISTL\DEBUG\STDAFX.OBJ
^C:\USERS\DELL\DOCUMENTS\VISUAL STUDIO 2015\PROJECTS\TESTLIST\TESTLISTL\TESTLISTL.CPP|C:\USERS\DELL\DOCUMENTS\VISUAL STUDIO 2015\PROJECTS\TESTLIST\TESTLISTL\TESTLISTLDLG.CPP
C:\USERS\DELL\DOCUMENTS\VISUAL STUDIO 2015\PROJECTS\TESTLIST\TESTLISTL\DEBUG\VC140.PDB
C:\USERS\DELL\DOCUMENTS\VISUAL STUDIO 2015\PROJECTS\TESTLIST\TESTLISTL\DEBUG\VC140.IDB
C:\USERS\DELL\DOCUMENTS\VISUAL STUDIO 2015\PROJECTS\TESTLIST\TESTLISTL\DEBUG\TESTLISTL.OBJ
^C:\USERS\DELL\DOCUMENTS\VISUAL STUDIO 2015\PROJECTS\TESTLIST\TESTLISTL\TESTLISTL.CPP
C:\USERS\DELL\DOCUMENTS\VISUAL STUDIO 2015\PROJECTS\TESTLIST\TESTLISTL\DEBUG\VC140.PDB
^C:\USERS\DELL\DOCUMENTS\VISUAL STUDIO 2015\PROJECTS\TESTLIST\TESTLISTL\TESTLISTLDLG.CPP
C:\USERS\DELL\DOCUMENTS\VISUAL STUDIO 2015\PROJECTS\TESTLIST\TESTLISTL\DEBUG\VC140.PDB
C:\USERS\DELL\DOCUMENTS\VISUAL STUDIO 2015\PROJECTS\TESTLIST\TESTLISTL\DEBUG\VC140.IDB
C:\USERS\DELL\DOCUMENTS\VISUAL STUDIO 2015\PROJECTS\TESTLIST\TESTLISTL\DEBUG\TESTLISTLDLG.OBJ
^C:\USERS\DELL\DESKTOP\FILE CLONE\TESTLIST\TESTLISTL\STDAFX.CPP
C:\USERS\DELL\DESKTOP\FILE CLONE\TESTLIST\TESTLISTL\DEBUG\TESTLISTL.PCH
C:\USERS\DELL\DESKTOP\FILE CLONE\TESTLIST\TESTLISTL\DEBUG\VC140.PDB
C:\USERS\DELL\DESKTOP\FILE CLONE\TESTLIST\TESTLISTL\DEBUG\VC140.IDB
C:\USERS\DELL\DESKTOP\FILE CLONE\TESTLIST\TESTLISTL\DEBUG\STDAFX.OBJ
^C:\USERS\DELL\DESKTOP\FILE CLONE\TESTLIST\TESTLISTL\TESTLISTL.CPP|C:\USERS\DELL\DESKTOP\FILE CLONE\TESTLIST\TESTLISTL\TESTLISTLDLG.CPP
C:\USERS\DELL\DESKTOP\FILE CLONE\TESTLIST\TESTLISTL\DEBUG\VC140.PDB
C:\USERS\DELL\DESKTOP\FILE CLONE\TESTLIST\TESTLISTL\DEBUG\VC140.IDB
C:\USERS\DELL\DESKTOP\FILE CLONE\TESTLIST\TESTLISTL\DEBUG\TESTLISTL.OBJ
C:\USERS\DELL\DESKTOP\FILE CLONE\TESTLIST\TESTLISTL\DEBUG\TESTLISTLDLG.OBJ
^C:\USERS\DELL\DESKTOP\FILE CLONE\TESTLIST\TESTLISTL\TESTLISTL.CPP
C:\USERS\DELL\DESKTOP\FILE CLONE\TESTLIST\TESTLISTL\DEBUG\VC140.PDB
^C:\USERS\DELL\DESKTOP\FILE CLONE\TESTLIST\TESTLISTL\TESTLISTLDLG.CPP
C:\USERS\DELL\DESKTOP\FILE CLONE\TESTLIST\TESTLISTL\DEBUG\VC140.PDB
