﻿  Main.cpp
  DeTai.vcxproj -> C:\Users\Dell\Documents\Visual Studio 2015\Projects\DeTai\Debug\DeTai.exe
  DeTai.vcxproj -> C:\Users\Dell\Documents\Visual Studio 2015\Projects\DeTai\Debug\DeTai.pdb (Partial PDB)
